#!/usr/local/bin/php -c /usr/local/directadmin/plugins/rspamd/php.ini
<?php
######################################################################################
#
#   Rspamd web interface plugin for Directadmin $ 0.1.1
#   ==============================================================================
#          Last modified: Tue May 14 12:30:43 +07 2019
#   ==============================================================================
#         Written by Alex S Grebenschikov (support@poralix.com)
#         Copyright 2019 by Alex S Grebenschikov (support@poralix.com)
#   ==============================================================================
#
######################################################################################

?>
<?php

error_reporting(0);
define("IN_DA_PLUGIN",true);
define("REQUEST_URL", "graph");
require_once("/usr/local/directadmin/plugins/rspamd/exec/raw.inc.php");
